{
    "created": "2020-08-17 07:22:42",
    "version_dup": "1.3.36",
    "version_wp": "4.9.15",
    "version_db": "10.0.32",
    "version_php": "7.1.9",
    "version_os": "Linux",
    "dbInfo": {
        "buildMode": "PHP",
        "collationList": [
            "utf8mb4_unicode_ci",
            "latin1_swedish_ci"
        ],
        "isTablesUpperCase": 0,
        "isNameUpperCase": 0,
        "name": "athena",
        "tablesBaseCount": 35,
        "tablesFinalCount": 35,
        "tablesRowCount": "2,054",
        "tablesSizeOnDisk": "5.53MB",
        "varLowerCaseTables": "0",
        "version": "10.0.32",
        "versionComment": "MariaDB Server",
        "tableWiseRowCounts": {
            "wp_actionscheduler_actions": "1",
            "wp_actionscheduler_claims": "0",
            "wp_actionscheduler_groups": "1",
            "wp_actionscheduler_logs": "1",
            "wp_commentmeta": "0",
            "wp_comments": "0",
            "wp_duplicator_packages": "1",
            "wp_links": "0",
            "wp_options": "377",
            "wp_postmeta": "756",
            "wp_posts": "402",
            "wp_social_users": "0",
            "wp_term_relationships": "62",
            "wp_term_taxonomy": "35",
            "wp_termmeta": "2",
            "wp_terms": "35",
            "wp_usermeta": "70",
            "wp_users": "1",
            "wp_woocommerce_api_keys": "0",
            "wp_woocommerce_attribute_taxonomies": "0",
            "wp_woocommerce_downloadable_product_permissions": "0",
            "wp_woocommerce_log": "0",
            "wp_woocommerce_order_itemmeta": "0",
            "wp_woocommerce_order_items": "0",
            "wp_woocommerce_payment_tokenmeta": "0",
            "wp_woocommerce_payment_tokens": "0",
            "wp_woocommerce_sessions": "1",
            "wp_woocommerce_shipping_zone_locations": "0",
            "wp_woocommerce_shipping_zone_methods": "0",
            "wp_woocommerce_shipping_zones": "0",
            "wp_woocommerce_tax_rate_locations": "0",
            "wp_woocommerce_tax_rates": "0",
            "wp_wpmailsmtp_tasks_meta": "0",
            "wp_yoast_seo_links": "139",
            "wp_yoast_seo_meta": "210"
        }
    },
    "url_old": "http:\/\/athena.giaodienwebmau.com",
    "opts_delete": "[\n    \"duplicator_ui_view_state\",\n    \"duplicator_package_active\",\n    \"duplicator_settings\"\n]",
    "blogname": "Trang web m\u1edbi",
    "wproot": "\/home\/athena.giaodienwebmau.com\/public_html",
    "wplogin_url": "http:\/\/athena.giaodienwebmau.com\/wp-login.php",
    "relative_content_dir": "\/wp-content",
    "exportOnlyDB": 0,
    "installSiteOverwriteOn": false,
    "secure_on": 0,
    "secure_pass": "$2a$08$b0mIlKjh\/Cbd9UEpJYUiVuJHZwPvB6ApOos.Q1RLxKdy8NCfyyt.y",
    "skipscan": false,
    "dbhost": "",
    "dbname": "",
    "dbuser": "",
    "dbpass": "",
    "mu_mode": 0,
    "wp_tableprefix": "wp_",
    "is_outer_root_wp_config_file": false,
    "is_outer_root_wp_content_dir": false,
    "installer_base_name": "installer.php",
    "package_name": "20200817_trangwebmoi_6fb52ca5c27b61403044_20200817072242_archive.zip",
    "package_hash": "6fb52ca-17072242",
    "package_notes": ""
}